<svg xmlns="http://www.w3.org/2000/svg" viewBox="0 0 20 14">
    <g fill="none" fill-rule="evenodd">
        <g fill="#575757" fill-rule="nonzero">
            <path d="M19.9 6.667c-.044-.067-1.112-1.674-2.846-3.3-1.027-.964-2.076-1.733-3.118-2.287C12.606.372 11.28.013 10 .013c-1.281 0-2.605.359-3.936 1.067-1.042.554-2.09 1.323-3.118 2.286C1.212 4.993.144 6.6.1 6.667c-.133.202-.133.464 0 .666.044.067 1.112 1.674 2.846 3.301 1.027.963 2.076 1.732 3.118 2.286 1.33.708 2.655 1.067 3.936 1.067 1.281 0 2.606-.359 3.936-1.067 1.042-.554 2.09-1.323 3.118-2.286C18.788 9.007 19.856 7.4 19.9 7.333c.133-.202.133-.464 0-.666zm-3.659 3.107c-1.473 1.377-3.752 3.02-6.24 3.02-2.49 0-4.769-1.643-6.242-3.02C2.573 8.664 1.7 7.54 1.307 7c.394-.542 1.266-1.665 2.452-2.774C5.232 2.85 7.51 1.206 10 1.206c2.49 0 4.768 1.643 6.241 3.02C17.427 5.336 18.3 6.46 18.693 7c-.394.542-1.266 1.665-2.452 2.774z" transform="translate(-130 -1485) translate(130 1485)"/>
            <path d="M10 3.847C8.293 3.847 6.904 5.262 6.904 7S8.293 10.153 10 10.153 13.096 8.738 13.096 7 11.707 3.847 10 3.847zm0 5.112C8.939 8.96 8.076 8.08 8.076 7S8.939 5.04 10 5.04s1.925.88 1.925 1.96S11.06 8.96 10 8.96z" transform="translate(-130 -1485) translate(130 1485)"/>
        </g>
    </g>
</svg>
