<svg xmlns="http://www.w3.org/2000/svg" width="18" height="17" viewBox="0 0 18 17">
    <path fill="#333" d="M9 16.014c-.256 0-.503-.093-.696-.261-.727-.636-1.428-1.234-2.047-1.76l-.003-.003c-1.813-1.546-3.38-2.88-4.469-4.195C.567 8.325 0 6.932 0 5.41c0-1.48.507-2.844 1.428-3.843C2.36.557 3.638 0 5.028 0c1.04 0 1.991.328 2.829.976.422.327.805.727 1.143 1.194.338-.467.72-.867 1.144-1.194C10.98.328 11.933 0 12.972 0c1.39 0 2.668.557 3.6 1.567C17.493 2.566 18 3.93 18 5.41c0 1.522-.567 2.915-1.785 4.385-1.09 1.315-2.656 2.65-4.469 4.194-.62.528-1.321 1.127-2.05 1.764-.193.168-.44.261-.696.261zM5.028 1.054c-1.092 0-2.095.436-2.825 1.228-.74.803-1.149 1.914-1.149 3.128 0 1.28.476 2.425 1.543 3.712 1.031 1.245 2.565 2.552 4.341 4.065l.003.003c.621.529 1.325 1.129 2.057 1.77.737-.642 1.442-1.243 2.064-1.773 1.776-1.514 3.31-2.82 4.341-4.065 1.067-1.287 1.543-2.432 1.543-3.712 0-1.214-.408-2.325-1.149-3.128-.73-.792-1.733-1.228-2.825-1.228-.8 0-1.535.255-2.184.756-.578.447-.98 1.013-1.216 1.408-.122.204-.335.325-.572.325-.237 0-.45-.121-.572-.325-.236-.395-.638-.96-1.216-1.408-.649-.501-1.384-.756-2.184-.756z" transform="translate(-1232 -786) translate(1232 786)"/>
</svg>
