<svg xmlns="http://www.w3.org/2000/svg" width="18" height="17" viewBox="0 0 18 17">
    <path fill="#333" d="M9 16.014c-.256 0-.503-.093-.696-.261-.727-.636-1.428-1.234-2.047-1.76l-.003-.003c-1.813-1.546-3.38-2.88-4.469-4.195C.567 8.325 0 6.932 0 5.41c0-1.48.507-2.844 1.428-3.843C2.36.557 3.638 0 5.028 0c1.04 0 1.991.328 2.829.976.422.327.805.727 1.143 1.194.338-.467.72-.867 1.144-1.194C10.98.328 11.933 0 12.972 0c1.39 0 2.668.557 3.6 1.567C17.493 2.566 18 3.93 18 5.41c0 1.522-.567 2.915-1.785 4.385-1.09 1.315-2.656 2.65-4.469 4.194-.62.528-1.321 1.127-2.05 1.764-.193.168-.44.261-.696.261z" transform="translate(-1607 -1150) translate(1607 1150)"/>
</svg>
