<svg width="16" height="16" viewBox="0 0 16 16" fill="none" xmlns="http://www.w3.org/2000/svg">
<path d="M1.70711 0.292893C1.31658 -0.0976311 0.683417 -0.0976311 0.292893 0.292893C-0.0976311 0.683417 -0.0976311 1.31658 0.292893 1.70711L1.70711 0.292893ZM13.7929 15.2071C14.1834 15.5976 14.8166 15.5976 15.2071 15.2071C15.5976 14.8166 15.5976 14.1834 15.2071 13.7929L13.7929 15.2071ZM0.292893 1.70711L13.7929 15.2071L15.2071 13.7929L1.70711 0.292893L0.292893 1.70711Z" fill="#333333"/>
<path d="M0.292893 13.7929C-0.0976311 14.1834 -0.0976311 14.8166 0.292893 15.2071C0.683418 15.5976 1.31658 15.5976 1.70711 15.2071L0.292893 13.7929ZM15.2071 1.70711C15.5976 1.31658 15.5976 0.683417 15.2071 0.292893C14.8166 -0.0976321 14.1834 -0.097632 13.7929 0.292893L15.2071 1.70711ZM1.70711 15.2071L15.2071 1.70711L13.7929 0.292893L0.292893 13.7929L1.70711 15.2071Z" fill="#333333"/>
</svg>
