<svg xmlns="http://www.w3.org/2000/svg" width="19" height="21" viewBox="0 0 19 21">
    <g fill="none" fill-rule="evenodd">
        <g fill="#333" fill-rule="nonzero">
            <g>
                <path d="M18.462 9.584L1.572.134C1.247-.048.848-.044.525.143.198.332 0 .676 0 1.05v18.9c0 .374.198.718.524.907.164.095.348.143.532.143.177 0 .356-.044.517-.134l16.889-9.45c.331-.187.538-.536.538-.916s-.207-.729-.538-.916z" transform="translate(-268 -7026) translate(268 7026)"/>
            </g>
        </g>
    </g>
</svg>
